…
## 4. Corruption Over Time

### 4.A: R Code

``` r
#calculating yearly average of world bank governance indicator for region 2 and 3.
data2 <- data1 %>%
  group_by(year, region) %>%
  filter(region == 2 | region == 3) %>%
  summarise(avg_yearly = mean(wb_corr, na.rm = TRUE))
data2
```

    ## # A tibble: 42 x 3
    ## # Groups:   year [21]
    ##     year region avg_yearly
    ##    <int>  <int>      <dbl>
    ##  1  1990      2        NaN
    ##  2  1990      3        NaN
    ##  3  1991      2        NaN
    ##  4  1991      3        NaN
    ##  5  1992      2        NaN
    ##  6  1992      3        NaN
    ##  7  1993      2        NaN
    ##  8  1993      3        NaN
    ##  9  1994      2        NaN
    ## 10  1994      3        NaN
    ## # ... with 32 more rows
…
